<svg width="52" height="46" viewBox="0 0 52 46" fill="none" xmlns="http://www.w3.org/2000/svg">
<g clip-path="url(#clip0)">
<path d="M31.7318 32.6413L26.1737 40.8142L21.2294 36.618L25.7166 31.5592L39.9383 15.4859L28.3964 7.25744L33.6097 4.21741C34.5735 4.95559 37.6451 7.44 42.8271 11.6733L48.3147 2.97388L49.8687 5.87897L31.7318 32.6413Z" fill="black"/>
<path d="M31.7318 32.6413L26.1737 40.8142L21.2294 36.618L25.7166 31.5592L39.9383 15.4859L28.3964 7.25744L33.6097 4.21741C34.5735 4.95559 37.6451 7.44 42.8271 11.6733L48.3147 2.97388L49.8687 5.87897L31.7318 32.6413Z" stroke="black" stroke-width="0.0142" stroke-miterlimit="22.9256"/>
<path d="M14.2478 33.3452L16.2276 38.4304L10.855 45.9948L8.18042 34.9406L1.10483 5.40283L20.6626 22.0926L11.0509 2.06647L16.2564 0.314941L23.9092 25.0374C21.7492 24.9395 19.5656 24.9606 17.403 25.1088L6.85358 14.0731L14.2478 33.3452Z" fill="black"/>
<path d="M14.2478 33.3452L16.2276 38.4304L10.855 45.9948L8.18042 34.9406L1.10483 5.40283L20.6626 22.0926L11.0509 2.06647L16.2564 0.314941L23.9092 25.0374C21.7492 24.9395 19.5656 24.9606 17.403 25.1088L6.85358 14.0731L14.2478 33.3452Z" stroke="black" stroke-width="0.0142" stroke-miterlimit="22.9256"/>
<path d="M33.8631 32.9111L28.305 41.084L23.3581 36.8904L27.8453 31.8316L42.067 15.7584L30.5251 7.5299L35.7384 4.48987C36.7022 5.22805 39.7738 7.71246 44.9558 11.9458L50.4433 3.24634L51.9974 6.15143L33.8631 32.9111Z" fill="#E3000F"/>
<path d="M33.8631 32.9111L28.305 41.084L23.3581 36.8904L27.8453 31.8316L42.067 15.7584L30.5251 7.5299L35.7384 4.48987C36.7022 5.22805 39.7738 7.71246 44.9558 11.9458L50.4433 3.24634L51.9974 6.15143L33.8631 32.9111Z" stroke="black" stroke-width="0.0142" stroke-miterlimit="22.9256"/>
<path d="M16.6403 33.0329L18.6201 38.1181L13.2475 45.6825L10.5729 34.6283L3.49731 5.09053L23.0551 21.7803L13.4434 1.75152L18.6489 0L26.3017 24.7224C24.1416 24.6245 21.9581 24.6457 19.7955 24.7939L9.24607 13.7608L16.6403 33.0329Z" fill="#E3000F"/>
<path d="M16.6403 33.0329L18.6201 38.1181L13.2475 45.6825L10.5729 34.6283L3.49731 5.09053L23.0551 21.7803L13.4434 1.75152L18.6489 0L26.3017 24.7224C24.1416 24.6245 21.9581 24.6457 19.7955 24.7939L9.24607 13.7608L16.6403 33.0329Z" stroke="black" stroke-width="0.0142" stroke-miterlimit="22.9256"/>
<path fill-rule="evenodd" clip-rule="evenodd" d="M2.31674 36.9461C1.68205 35.2739 1.06303 33.5965 0.441406 31.919C0.331707 31.628 0.224619 31.3343 0.117532 31.0406V31.038C0.112308 31.0221 0.107085 31.0089 0.101861 30.993L0.00260925 30.7284L0.25335 30.5644C5.5163 27.1433 12.2367 25.4236 18.6227 24.8468C24.0868 24.352 29.8878 24.6325 35.2317 25.8019C37.4623 26.2914 39.6588 26.9396 41.7536 27.7889C43.5714 28.5245 45.3214 29.4134 46.9225 30.485L47.2333 30.694L43.3416 36.2846L42.989 36.0835C38.891 33.7658 34.3515 32.2603 29.5639 31.6465C24.254 30.9639 18.863 31.4057 13.7228 32.7683C11.7561 33.2922 9.83113 33.9457 7.96363 34.7156C6.23195 35.43 4.5499 36.2423 2.92531 37.1418L2.48129 37.3879L2.31674 36.9461Z" fill="black"/>
<path d="M2.31674 36.9461C1.68205 35.2739 1.06303 33.5965 0.441406 31.919C0.331707 31.628 0.224619 31.3343 0.117532 31.0406V31.038C0.112308 31.0221 0.107085 31.0089 0.101861 30.993L0.00260925 30.7284L0.25335 30.5644C5.5163 27.1433 12.2367 25.4236 18.6227 24.8468C24.0868 24.352 29.8878 24.6325 35.2317 25.8019C37.4623 26.2914 39.6588 26.9396 41.7536 27.7889C43.5715 28.5245 45.3214 29.4134 46.9225 30.485L47.2333 30.694L43.3416 36.2846L42.989 36.0835C38.891 33.7658 34.3515 32.2603 29.5639 31.6465C24.254 30.9639 18.863 31.4057 13.7228 32.7683C11.7561 33.2922 9.83113 33.9457 7.96363 34.7156C6.23195 35.43 4.5499 36.2423 2.92531 37.1418L2.48129 37.3879L2.31674 36.9461Z" stroke="black" stroke-width="0.0142" stroke-miterlimit="22.9256"/>
<path fill-rule="evenodd" clip-rule="evenodd" d="M2.71375 36.8244C4.3514 35.9169 6.04913 35.0967 7.79648 34.377C9.67965 33.6018 11.6229 32.9404 13.6105 32.4112C23.695 29.7336 34.2418 30.6941 43.2136 35.7687L46.6744 30.792C45.0968 29.7363 43.3703 28.8605 41.5812 28.1382C39.51 27.2995 37.3343 26.6566 35.1298 26.175C24.2644 23.7965 9.74755 24.8627 0.496262 30.8766C0.501485 30.8925 0.509321 30.9084 0.514545 30.9243C0.621632 31.2153 0.731331 31.509 0.838418 31.8C1.46005 33.4748 2.07906 35.1523 2.71375 36.8244Z" fill="#E3000F"/>
<path d="M2.71375 36.8244C4.3514 35.9169 6.04913 35.0967 7.79648 34.377C9.67965 33.6018 11.6229 32.9404 13.6105 32.4112C23.695 29.7336 34.2418 30.6941 43.2136 35.7687L46.6744 30.792C45.0968 29.7363 43.3703 28.8605 41.5812 28.1382C39.51 27.2995 37.3343 26.6566 35.1298 26.175C24.2644 23.7965 9.74755 24.8627 0.496262 30.8766C0.501485 30.8925 0.509321 30.9084 0.514545 30.9243C0.621632 31.2153 0.731331 31.509 0.838418 31.8C1.46005 33.4748 2.07906 35.1523 2.71375 36.8244Z" stroke="black" stroke-width="0.0142" stroke-miterlimit="22.9256"/>
<path d="M12.8165 31.3713L11.6751 31.6862L10.4293 28.0006L12.2445 27.4979C12.6546 27.3841 13.0307 27.3762 13.3702 27.4714C13.7699 27.5825 14.031 27.8233 14.1564 28.1964C14.287 28.58 14.2296 28.9002 13.9893 29.1621C13.7934 29.3738 13.4904 29.5351 13.0777 29.6489L12.3072 29.8606L12.8165 31.3713ZM11.7326 28.1646L12.1427 29.3817L12.443 29.2997C12.6598 29.2388 12.8191 29.1541 12.9236 29.0404C13.049 28.9002 13.0777 28.7282 13.0098 28.5218C12.9367 28.3048 12.8061 28.1593 12.6154 28.0879C12.4509 28.0244 12.2602 28.0244 12.0382 28.0852L11.7326 28.1646ZM17.3873 30.3342L16.7213 26.5269L17.9019 26.3575L18.5679 30.1648L17.3873 30.3342ZM20.7775 29.8553L22.6712 26.4501L20.6992 26.5427L20.6678 26.0003L24.2984 25.8284L22.3917 29.2415L24.3558 29.1489L24.3872 29.686L20.7775 29.8553ZM26.4897 29.7389L28.83 26.5665L26.8606 26.4422L26.9024 25.8998L30.5277 26.13L28.1744 29.3076L30.1359 29.432L30.0941 29.9691L26.4897 29.7389ZM32.7295 30.4612L32.1366 30.3183L34.7198 26.9528L35.8795 27.2333L36.2817 31.3211L35.041 31.0194L34.9183 29.805L33.5 29.4611L32.7295 30.4612ZM34.7276 27.8392L33.8239 29.0377L34.8739 29.2917L34.7276 27.8392Z" fill="white"/>
<path d="M12.8165 31.3713L11.6751 31.6862L10.4293 28.0006L12.2445 27.4979C12.6546 27.3841 13.0307 27.3762 13.3702 27.4714C13.7699 27.5825 14.031 27.8233 14.1564 28.1964C14.287 28.58 14.2296 28.9002 13.9893 29.1621C13.7934 29.3738 13.4904 29.5351 13.0777 29.6489L12.3072 29.8606L12.8165 31.3713ZM11.7326 28.1646L12.1427 29.3817L12.443 29.2997C12.6598 29.2388 12.8191 29.1541 12.9236 29.0404C13.049 28.9002 13.0777 28.7282 13.0098 28.5218C12.9367 28.3048 12.8061 28.1593 12.6154 28.0879C12.4509 28.0244 12.2602 28.0244 12.0382 28.0852L11.7326 28.1646ZM17.3873 30.3342L16.7213 26.5269L17.9019 26.3575L18.5679 30.1648L17.3873 30.3342ZM20.7775 29.8553L22.6712 26.4501L20.6992 26.5427L20.6678 26.0003L24.2984 25.8284L22.3917 29.2415L24.3558 29.1489L24.3872 29.686L20.7775 29.8553ZM26.4897 29.7389L28.83 26.5665L26.8606 26.4422L26.9024 25.8998L30.5277 26.13L28.1744 29.3076L30.1359 29.432L30.0941 29.9691L26.4897 29.7389ZM32.7295 30.4612L32.1366 30.3183L34.7198 26.9528L35.8795 27.2333L36.2817 31.3211L35.041 31.0194L34.9183 29.805L33.5 29.4611L32.7295 30.4612ZM34.7276 27.8392L33.8239 29.0377L34.8739 29.2917L34.7276 27.8392Z" stroke="black" stroke-width="0.0142" stroke-miterlimit="22.9256"/>
</g>
<defs>
<clipPath id="clip0">
<rect width="52" height="46" fill="white"/>
</clipPath>
</defs>
</svg>
